Untitled
…
Ahora apliquemos esta funcin a los diez ajustes remuestreados. Los resultados de la funcin de extraccin se envuelven en un objeto list y se devuelven en un tibble:

ctrl <- control_resamples(extract = get_model)

lm_res <- lm_wflow %>%  fit_resamples(resamples = ames_folds, control = ctrl)
lm_res

Ahora hay una columna con tibbles anidados. Qu contienen?.extracts

lm_res$.extracts[[1]]

lm_res$.extracts[[1]][[1]]

## [[1]]
## # A tibble: 73 x 5
##    term                             estimate  std.error statistic   p.value
##    <chr>                               <dbl>      <dbl>     <dbl>     <dbl>
##  1 (Intercept)                      1.29     0.323         3.99   6.86e-  5
##  2 Gr_Liv_Area                      0.000159 0.00000464   34.4    1.19e-204
##  3 Year_Built                       0.00188  0.000148     12.7    1.25e- 35
##  4 Neighborhood_College_Creek      -0.00264  0.0375       -0.0706 9.44e-  1
##  5 Neighborhood_Old_Town           -0.0834   0.0143       -5.85   5.86e-  9
##  6 Neighborhood_Edwards            -0.108    0.0311       -3.48   5.04e-  4
##  7 Neighborhood_Somerset            0.0857   0.0206        4.17   3.19e-  5
##  8 Neighborhood_Northridge_Heights  0.155    0.0373        4.16   3.38e-  5
##  9 Neighborhood_Gilbert             0.0334   0.0335        0.997  3.19e-  1
## 10 Neighborhood_Sawyer             -0.117    0.0296       -3.94   8.32e-  5
## # ... with 63 more rows
…
